<?xml version="1.0" encoding="UTF-8"?>
<svg xmlns:svg="http://www.w3.org/2000/svg" xmlns="http://www.w3.org/2000/svg" width="188.54688" height="20" viewBox="0 0 188.54688 20">
    <rect fill="#B7B329" width="34.765625" height="20" x="0" y="0" />
    <rect fill="#686517" width="153.78125" height="20" x="34.765625" y="0" />
    <g transform="translate(5, 14.3125)"><path transform="translate(0.000000,0)" d=" M 2.500000,-11.765625  L 1.125000,-11.765625  L 1.125000,-2.390625  C 1.125000,-1.921875 1.125000,-1.546875 1.140625,-1.265625  C 1.187500,-0.187500 1.781250,0.062500 2.578125,0.062500  C 2.890625,0.062500 3.250000,0.046875 3.546875,0.000000  L 3.546875,-0.984375  C 2.796875,-0.906250 2.546875,-1.093750 2.515625,-1.625000  C 2.500000,-1.906250 2.500000,-2.171875 2.500000,-2.437500  L 2.500000,-11.765625 " fill="white" /><path transform="translate(3.953125,0)" d=" M 1.875000,-11.265625  C 1.375000,-11.265625 0.984375,-10.875000 0.984375,-10.390625  C 0.984375,-9.890625 1.375000,-9.500000 1.875000,-9.500000  C 2.375000,-9.500000 2.750000,-9.890625 2.750000,-10.390625  C 2.750000,-10.875000 2.375000,-11.265625 1.875000,-11.265625  M 2.562500,0.000000  L 2.562500,-8.484375  L 1.187500,-8.484375  L 1.187500,0.000000  L 2.562500,0.000000 " fill="white" /><path transform="translate(7.765625,0)" d=" M 8.125000,-8.484375  L 6.671875,-8.484375  L 4.125000,-1.015625  L 1.531250,-8.484375  L 0.015625,-8.484375  L 3.234375,0.000000  L 4.906250,0.000000  L 8.125000,-8.484375 " fill="white" /><path transform="translate(15.984375,0)" d=" M 8.140625,-4.484375  C 8.140625,-6.953125 6.843750,-8.703125 4.515625,-8.703125  C 2.187500,-8.703125 0.484375,-6.953125 0.484375,-4.203125  C 0.484375,-1.218750 2.125000,0.218750 4.343750,0.218750  C 6.078125,0.218750 7.703125,-0.687500 8.031250,-2.734375  L 6.593750,-2.734375  C 6.406250,-1.515625 5.500000,-0.828125 4.406250,-0.828125  C 3.156250,-0.828125 2.093750,-1.578125 1.968750,-3.828125  L 8.109375,-3.828125  C 8.140625,-4.125000 8.140625,-4.359375 8.140625,-4.484375  M 4.484375,-7.640625  C 5.875000,-7.640625 6.625000,-6.640625 6.750000,-4.875000  L 1.984375,-4.875000  C 2.140625,-6.687500 3.140625,-7.640625 4.484375,-7.640625 " fill="white" /></g>
    <g transform="translate(39.765625, 14.3125)"><path transform="translate(0.000000,0)" d=" M 7.171875,-10.953125  C 6.578125,-11.031250 6.125000,-11.046875 5.437500,-11.046875  L 1.281250,-11.046875  L 1.281250,0.000000  L 4.156250,0.000000  L 4.156250,-3.875000  L 5.437500,-3.875000  C 6.125000,-3.875000 6.578125,-3.890625 7.171875,-3.953125  C 8.765625,-4.140625 10.218750,-5.281250 10.218750,-7.453125  C 10.218750,-9.625000 8.765625,-10.765625 7.171875,-10.953125  M 6.046875,-6.125000  C 5.843750,-6.109375 5.578125,-6.109375 5.281250,-6.109375  L 4.156250,-6.109375  L 4.156250,-8.796875  L 5.281250,-8.796875  C 5.578125,-8.796875 5.843750,-8.796875 6.046875,-8.781250  C 6.781250,-8.718750 7.218750,-8.281250 7.218750,-7.453125  C 7.218750,-6.625000 6.781250,-6.187500 6.046875,-6.125000 " fill="white" /><path transform="translate(10.296875,0)" d=" M 6.031250,-8.765625  C 5.484375,-8.765625 4.812500,-8.531250 4.359375,-8.015625  L 3.750000,-6.812500  L 3.750000,-8.546875  L 0.859375,-8.546875  L 0.859375,0.000000  L 3.750000,0.000000  L 3.750000,-3.140625  C 3.750000,-5.718750 4.531250,-6.515625 6.687500,-6.375000  L 6.687500,-8.718750  C 6.484375,-8.750000 6.296875,-8.765625 6.031250,-8.765625 " fill="white" /><path transform="translate(17.015625,0)" d=" M 4.968750,-8.765625  C 2.171875,-8.765625 0.390625,-7.031250 0.390625,-4.265625  C 0.390625,-1.531250 2.171875,0.218750 4.968750,0.218750  C 7.781250,0.218750 9.562500,-1.531250 9.562500,-4.265625  C 9.562500,-7.031250 7.781250,-8.765625 4.968750,-8.765625  M 4.968750,-1.734375  C 3.953125,-1.734375 3.328125,-2.578125 3.328125,-4.265625  C 3.328125,-5.984375 3.953125,-6.812500 4.968750,-6.812500  C 6.000000,-6.812500 6.625000,-5.984375 6.625000,-4.265625  C 6.625000,-2.578125 6.000000,-1.734375 4.968750,-1.734375 " fill="white" /><path transform="translate(26.968750,0)" d=" M 9.843750,-11.765625  L 6.953125,-11.765625  L 6.953125,-7.437500  L 6.406250,-8.359375  C 5.968750,-8.609375 5.140625,-8.765625 4.437500,-8.765625  C 2.234375,-8.765625 0.390625,-7.125000 0.390625,-4.078125  C 0.390625,-1.546875 1.828125,0.218750 4.140625,0.218750  C 5.015625,0.218750 5.843750,0.046875 6.312500,-0.296875  L 6.953125,-1.250000  L 6.953125,0.000000  L 9.843750,0.000000  L 9.843750,-11.765625  M 5.140625,-1.734375  C 4.125000,-1.734375 3.328125,-2.625000 3.328125,-4.218750  C 3.328125,-5.968750 4.093750,-6.812500 5.218750,-6.812500  C 6.078125,-6.812500 6.953125,-6.234375 6.953125,-4.531250  L 6.953125,-4.156250  C 6.953125,-2.375000 6.187500,-1.734375 5.140625,-1.734375 " fill="white" /><path transform="translate(37.671875,0)" d=" M 9.375000,-8.546875  L 6.500000,-8.546875  L 6.500000,-3.718750  C 6.500000,-2.578125 5.953125,-1.734375 5.046875,-1.734375  C 4.125000,-1.734375 3.750000,-2.203125 3.640625,-3.031250  C 3.593750,-3.453125 3.578125,-3.921875 3.578125,-4.187500  L 3.578125,-8.546875  L 0.703125,-8.546875  L 0.703125,-3.546875  C 0.703125,-2.859375 0.718750,-2.375000 0.781250,-1.937500  C 0.968750,-0.765625 2.046875,0.218750 3.812500,0.218750  C 4.593750,0.218750 5.203125,0.046875 5.734375,-0.265625  L 6.500000,-1.437500  L 6.500000,0.000000  L 9.375000,0.000000  L 9.375000,-8.546875 " fill="white" /><path transform="translate(47.906250,0)" d=" M 4.875000,-8.765625  C 2.375000,-8.765625 0.390625,-7.125000 0.390625,-4.171875  C 0.390625,-1.359375 2.234375,0.218750 4.687500,0.218750  C 7.015625,0.218750 8.718750,-0.921875 9.046875,-3.140625  L 6.203125,-3.140625  C 6.046875,-2.203125 5.500000,-1.734375 4.843750,-1.734375  C 3.875000,-1.734375 3.328125,-2.531250 3.328125,-4.359375  C 3.328125,-6.000000 3.859375,-6.812500 4.812500,-6.812500  C 5.531250,-6.812500 6.093750,-6.406250 6.218750,-5.281250  L 9.015625,-5.281250  C 8.921875,-7.203125 7.390625,-8.765625 4.875000,-8.765625 " fill="white" /><path transform="translate(57.296875,0)" d=" M 4.312500,-6.687500  L 6.203125,-6.687500  L 6.203125,-8.484375  L 4.312500,-8.484375  L 4.312500,-10.687500  L 1.437500,-10.687500  L 1.437500,-8.484375  L 0.078125,-8.484375  L 0.078125,-6.687500  L 1.437500,-6.687500  L 1.437500,-3.125000  C 1.437500,-2.640625 1.437500,-2.234375 1.468750,-1.750000  C 1.562500,-0.437500 2.203125,0.218750 4.343750,0.218750  C 4.937500,0.218750 5.468750,0.171875 6.031250,0.078125  L 6.031250,-1.718750  C 4.671875,-1.640625 4.406250,-1.843750 4.343750,-2.703125  C 4.312500,-2.921875 4.312500,-3.250000 4.312500,-3.531250  L 4.312500,-6.687500 " fill="white" /><path transform="translate(63.703125,0)" d=" M 2.296875,-12.015625  C 1.406250,-12.015625 0.812500,-11.468750 0.812500,-10.609375  C 0.812500,-9.750000 1.406250,-9.203125 2.296875,-9.203125  C 3.203125,-9.203125 3.796875,-9.750000 3.796875,-10.609375  C 3.796875,-11.468750 3.203125,-12.015625 2.296875,-12.015625  M 3.750000,0.000000  L 3.750000,-8.546875  L 0.859375,-8.546875  L 0.859375,0.000000  L 3.750000,0.000000 " fill="white" /><path transform="translate(68.312500,0)" d=" M 4.968750,-8.765625  C 2.171875,-8.765625 0.390625,-7.031250 0.390625,-4.265625  C 0.390625,-1.531250 2.171875,0.218750 4.968750,0.218750  C 7.781250,0.218750 9.562500,-1.531250 9.562500,-4.265625  C 9.562500,-7.031250 7.781250,-8.765625 4.968750,-8.765625  M 4.968750,-1.734375  C 3.953125,-1.734375 3.328125,-2.578125 3.328125,-4.265625  C 3.328125,-5.984375 3.953125,-6.812500 4.968750,-6.812500  C 6.000000,-6.812500 6.625000,-5.984375 6.625000,-4.265625  C 6.625000,-2.578125 6.000000,-1.734375 4.968750,-1.734375 " fill="white" /><path transform="translate(78.265625,0)" d=" M 9.453125,-6.453125  C 9.234375,-7.937500 8.187500,-8.765625 6.437500,-8.765625  C 5.640625,-8.765625 5.046875,-8.593750 4.515625,-8.265625  L 3.750000,-7.218750  L 3.750000,-8.546875  L 0.859375,-8.546875  L 0.859375,0.000000  L 3.750000,0.000000  L 3.750000,-4.031250  C 3.750000,-5.968750 4.375000,-6.812500 5.250000,-6.812500  C 6.109375,-6.812500 6.562500,-6.343750 6.625000,-5.515625  C 6.656250,-5.093750 6.656250,-4.625000 6.656250,-4.359375  L 6.656250,0.000000  L 9.531250,0.000000  L 9.531250,-4.828125  C 9.531250,-5.515625 9.515625,-6.015625 9.453125,-6.453125 " fill="white" /><path transform="translate(88.562500,0)" d="" fill="white" /><path transform="translate(91.375000,0)" d=" M 5.156250,-11.265625  C 2.953125,-11.265625 0.968750,-10.062500 0.968750,-7.937500  C 0.968750,-5.734375 2.453125,-4.937500 4.953125,-4.312500  C 6.312500,-3.984375 6.734375,-3.484375 6.734375,-2.906250  C 6.734375,-2.296875 6.125000,-1.890625 5.328125,-1.890625  C 4.468750,-1.890625 3.609375,-2.343750 3.421875,-3.375000  L 0.546875,-3.375000  C 0.718750,-0.890625 2.609375,0.218750 5.406250,0.218750  C 7.625000,0.218750 9.750000,-0.890625 9.750000,-3.109375  C 9.750000,-4.796875 8.750000,-6.015625 6.312500,-6.593750  C 4.500000,-7.031250 3.984375,-7.453125 3.984375,-8.156250  C 3.984375,-8.828125 4.437500,-9.156250 5.093750,-9.156250  C 6.031250,-9.156250 6.515625,-8.546875 6.640625,-7.625000  L 9.515625,-7.625000  C 9.281250,-9.687500 8.062500,-11.265625 5.156250,-11.265625 " fill="white" /><path transform="translate(101.390625,0)" d=" M 9.234375,-4.390625  C 9.234375,-6.593750 7.796875,-8.765625 4.937500,-8.765625  C 2.093750,-8.765625 0.390625,-6.734375 0.390625,-4.234375  C 0.390625,-1.234375 2.343750,0.218750 4.781250,0.218750  C 6.968750,0.218750 8.578125,-0.859375 9.078125,-2.796875  L 6.234375,-2.796875  C 6.125000,-2.140625 5.625000,-1.734375 4.812500,-1.734375  C 4.000000,-1.734375 3.375000,-2.125000 3.234375,-3.546875  L 9.187500,-3.546875  C 9.218750,-3.843750 9.234375,-4.125000 9.234375,-4.390625  M 4.796875,-6.812500  C 5.562500,-6.812500 6.062500,-6.312500 6.218750,-5.312500  L 3.328125,-5.312500  C 3.515625,-6.375000 4.046875,-6.812500 4.796875,-6.812500 " fill="white" /><path transform="translate(111.000000,0)" d=" M 6.031250,-8.765625  C 5.484375,-8.765625 4.812500,-8.531250 4.359375,-8.015625  L 3.750000,-6.812500  L 3.750000,-8.546875  L 0.859375,-8.546875  L 0.859375,0.000000  L 3.750000,0.000000  L 3.750000,-3.140625  C 3.750000,-5.718750 4.531250,-6.515625 6.687500,-6.375000  L 6.687500,-8.718750  C 6.484375,-8.750000 6.296875,-8.765625 6.031250,-8.765625 " fill="white" /><path transform="translate(117.718750,0)" d=" M 9.859375,-8.546875  L 6.703125,-8.546875  L 4.953125,-2.281250  L 3.203125,-8.546875  L 0.000000,-8.546875  L 3.375000,0.000000  L 6.484375,0.000000  L 9.859375,-8.546875 " fill="white" /><path transform="translate(127.453125,0)" d=" M 9.234375,-4.390625  C 9.234375,-6.593750 7.796875,-8.765625 4.937500,-8.765625  C 2.093750,-8.765625 0.390625,-6.734375 0.390625,-4.234375  C 0.390625,-1.234375 2.343750,0.218750 4.781250,0.218750  C 6.968750,0.218750 8.578125,-0.859375 9.078125,-2.796875  L 6.234375,-2.796875  C 6.125000,-2.140625 5.625000,-1.734375 4.812500,-1.734375  C 4.000000,-1.734375 3.375000,-2.125000 3.234375,-3.546875  L 9.187500,-3.546875  C 9.218750,-3.843750 9.234375,-4.125000 9.234375,-4.390625  M 4.796875,-6.812500  C 5.562500,-6.812500 6.062500,-6.312500 6.218750,-5.312500  L 3.328125,-5.312500  C 3.515625,-6.375000 4.046875,-6.812500 4.796875,-6.812500 " fill="white" /><path transform="translate(137.062500,0)" d=" M 6.031250,-8.765625  C 5.484375,-8.765625 4.812500,-8.531250 4.359375,-8.015625  L 3.750000,-6.812500  L 3.750000,-8.546875  L 0.859375,-8.546875  L 0.859375,0.000000  L 3.750000,0.000000  L 3.750000,-3.140625  C 3.750000,-5.718750 4.531250,-6.515625 6.687500,-6.375000  L 6.687500,-8.718750  C 6.484375,-8.750000 6.296875,-8.765625 6.031250,-8.765625 " fill="white" /></g>
</svg>